<?xml version="1.0" encoding="UTF-8"?>
<svg width="246px" height="131px" viewBox="0 0 246 131" version="1.1" xmlns="http://www.w3.org/2000/svg" xmlns:xlink="http://www.w3.org/1999/xlink">
    <!-- Generator: Sketch 47.1 (45422) - http://www.bohemiancoding.com/sketch -->
    <title>Artboard</title>
    <desc>Created with Sketch.</desc>
    <defs>
        <polygon id="path-1" points="0 79.9886418 0 159 221.237302 159 221.237302 0.977283582 0 0.977283582"></polygon>
        <polygon id="path-3" points="0 47.0912243 0 93.6070985 147.709215 93.6070985 147.709215 0.575350192 0 0.575350192"></polygon>
        <polygon id="path-5" points="0 47.0912243 0 93.6070985 147.709215 93.6070985 147.709215 0.575350192 0 0.575350192"></polygon>
        <polygon id="path-7" points="0 47.0912243 0 93.6070985 147.709215 93.6070985 147.709215 0.575350192 0 0.575350192"></polygon>
        <polygon id="path-9" points="0 47.0912243 0 93.6070985 147.709215 93.6070985 147.709215 0.575350192 0 0.575350192"></polygon>
        <polygon id="path-11" points="0 47.0912243 0 93.6070985 147.709215 93.6070985 147.709215 0.575350192 0 0.575350192"></polygon>
        <polygon id="path-13" points="0 47.0912243 0 93.6070985 147.709215 93.6070985 147.709215 0.575350192 0 0.575350192"></polygon>
    </defs>
    <g id="Page-1" stroke="none" stroke-width="1" fill="none" fill-rule="evenodd">
        <g id="black-sand-tours">
            <g id="black-sand-logo-dark" transform="translate(-9.000000, 0.000000)">
                <g id="BlackSand_Logo_BLACK_SLANTED" transform="translate(0.000000, 1.000000)">
                    <path d="M30.671,43.48 C32.276,44.271 33.457,45.702 34.222,47.776 C34.985,49.847 35.375,52.195 35.395,54.822 C35.415,57.446 35.083,60.197 34.403,63.07 C33.721,65.943 32.733,68.597 31.432,71.036 C30.132,73.473 28.541,75.518 26.66,77.168 C24.781,78.822 22.663,79.749 20.307,79.954 C17.765,80.177 15.89,79.224 14.681,77.097 C14.131,76.121 13.81,74.826 13.713,73.205 C13.62,71.586 13.693,69.78 13.94,67.78 C14.184,65.783 14.532,63.649 14.987,61.376 C15.438,59.106 15.939,56.819 16.482,54.516 C17.026,52.215 17.562,49.945 18.089,47.715 C18.615,45.483 19.043,43.437 19.368,41.569 C19.696,39.704 19.901,38.059 19.985,36.634 C20.072,35.208 19.942,34.116 19.595,33.355 C19.25,32.596 19.347,31.982 19.889,31.515 C20.429,31.05 21.161,30.882 22.077,31.012 C22.996,31.139 23.959,31.628 24.964,32.469 C25.968,33.312 26.758,34.638 27.334,36.449 C27.533,37.127 27.612,38.028 27.569,39.148 C27.527,40.266 27.407,41.555 27.208,43.013 C28.2,42.65 29.355,42.804 30.671,43.48 M22.411,71.26 C22.74,71.327 23.132,70.874 23.584,69.904 C24.034,68.936 24.485,67.698 24.935,66.193 C25.386,64.69 25.824,63.048 26.252,61.268 C26.68,59.487 27.009,57.819 27.247,56.265 C27.484,54.709 27.614,53.408 27.64,52.359 C27.664,51.31 27.535,50.752 27.249,50.683 C26.916,50.618 26.54,51.083 26.114,52.073 C25.686,53.065 25.248,54.299 24.797,55.78 C24.343,57.261 23.903,58.891 23.478,60.672 C23.05,62.454 22.706,64.123 22.448,65.68 C22.188,67.236 22.046,68.539 22.02,69.588 C21.995,70.635 22.125,71.193 22.411,71.26" id="Fill-8" fill="#55bbc0" fill-rule="nonzero"></path>
                    <path d="M42.686,78.006 C41.578,78.102 40.513,77.927 39.498,77.481 C38.482,77.036 37.668,76.255 37.061,75.147 C36.345,73.861 36.032,72.017 36.124,69.614 C36.219,67.21 36.521,64.546 37.033,61.618 C37.546,58.692 38.179,55.658 38.93,52.524 C39.677,49.391 40.362,46.426 40.981,43.626 C41.598,40.83 42.043,38.339 42.318,36.153 C42.592,33.968 42.501,32.382 42.043,31.399 C41.698,30.639 41.795,30.026 42.337,29.559 C42.878,29.094 43.609,28.926 44.526,29.054 C45.445,29.184 46.407,29.671 47.413,30.513 C48.416,31.355 49.183,32.684 49.714,34.498 C49.97,35.311 50.047,36.454 49.944,37.929 C49.84,39.404 49.625,41.084 49.302,42.973 C48.978,44.862 48.582,46.883 48.118,49.038 C47.655,51.195 47.192,53.364 46.732,55.541 C46.269,57.722 45.839,59.863 45.441,61.965 C45.042,64.071 44.757,65.99 44.581,67.725 C44.447,68.853 44.506,69.663 44.759,70.152 C45.011,70.643 45.321,70.87 45.691,70.838 C46.107,70.803 46.48,70.537 46.809,70.044 C47.138,69.551 47.444,68.93 47.728,68.186 C48.012,67.439 48.258,66.65 48.466,65.818 C48.671,64.988 48.836,64.217 48.962,63.509 C49.215,62.139 49.542,61.482 49.942,61.541 C50.343,61.601 50.441,62.334 50.24,63.746 C50.161,64.452 50.004,65.57 49.765,67.1 C49.524,68.632 49.146,70.178 48.631,71.732 C48.117,73.289 47.377,74.689 46.415,75.937 C45.453,77.182 44.21,77.872 42.686,78.006" id="Fill-9" fill="#55bbc0" fill-rule="nonzero"></path>
                    <path d="M73.465,41.882 C73.118,42.704 72.755,43.747 72.377,45.015 C71.998,46.281 71.643,47.673 71.31,49.189 C70.977,50.71 70.647,52.275 70.322,53.884 C69.997,55.495 69.703,57.047 69.437,58.536 C69.171,60.024 68.94,61.393 68.747,62.643 C68.553,63.895 68.398,64.897 68.277,65.652 C68.137,66.734 68.149,67.525 68.309,68.024 C68.469,68.523 68.664,68.783 68.9,68.809 C69.267,68.732 69.612,68.444 69.943,67.951 C70.273,67.456 70.578,66.847 70.866,66.123 C71.152,65.401 71.387,64.627 71.57,63.794 C71.754,62.964 71.907,62.193 72.032,61.486 C72.239,60.119 72.564,59.46 73.014,59.516 C73.459,59.569 73.579,60.302 73.378,61.716 C73.254,62.426 73.085,63.546 72.87,65.078 C72.653,66.606 72.276,68.154 71.738,69.712 C71.198,71.273 70.46,72.675 69.52,73.922 C68.583,75.168 67.351,75.856 65.826,75.99 C64.949,76.065 64.091,75.85 63.257,75.339 C62.419,74.831 61.814,74.01 61.435,72.881 C60.978,74.036 60.28,74.961 59.339,75.647 C58.397,76.333 57.444,76.72 56.472,76.804 C54.209,77.001 52.481,76.256 51.286,74.566 C50.091,72.881 49.342,70.688 49.039,67.992 C48.733,65.295 48.839,62.353 49.352,59.169 C49.865,55.98 50.685,52.977 51.813,50.158 C52.939,47.336 54.337,44.956 56.007,43.02 C57.677,41.083 59.527,40.025 61.561,39.847 C62.76,39.743 63.721,39.95 64.442,40.47 C65.16,40.989 65.678,41.722 65.996,42.671 C66.767,41.908 67.654,41.283 68.66,40.799 C69.663,40.318 70.58,40.017 71.408,39.896 C72.235,39.778 72.872,39.875 73.319,40.184 C73.765,40.496 73.812,41.062 73.465,41.882 M57.626,68.397 C57.912,68.464 58.255,68.014 58.659,67.048 C59.065,66.082 59.469,64.859 59.875,63.382 C60.282,61.906 60.664,60.3 61.027,58.569 C61.388,56.84 61.666,55.221 61.861,53.715 C62.054,52.208 62.141,50.933 62.121,49.887 C62.1,48.842 61.946,48.284 61.66,48.215 C61.329,48.15 60.962,48.592 60.554,49.535 C60.148,50.477 59.741,51.69 59.335,53.167 C58.929,54.645 58.558,56.26 58.221,58.011 C57.886,59.764 57.62,61.391 57.425,62.897 C57.229,64.404 57.133,65.68 57.131,66.729 C57.129,67.776 57.293,68.33 57.626,68.397" id="Fill-10" fill="#55bbc0" fill-rule="nonzero"></path>
                    <path d="M81.204,74.547 C78.665,74.257 76.675,73.19 75.234,71.34 C73.794,69.495 72.84,67.245 72.376,64.593 C71.913,61.941 71.883,59.1 72.298,56.071 C72.706,53.042 73.471,50.203 74.589,47.553 C75.709,44.903 77.154,42.676 78.931,40.876 C80.703,39.074 82.72,38.072 84.984,37.875 C86.325,37.759 87.516,37.946 88.561,38.435 C89.604,38.924 90.444,39.618 91.081,40.511 C91.716,41.411 92.169,42.473 92.439,43.702 C92.71,44.93 92.741,46.208 92.53,47.523 C92.307,49.26 91.885,50.666 91.256,51.741 C90.629,52.815 89.935,53.665 89.176,54.288 C88.415,54.911 87.646,55.304 86.869,55.464 C86.092,55.625 85.408,55.651 84.816,55.54 C84.225,55.43 83.785,55.199 83.499,54.852 C83.213,54.507 83.211,54.089 83.495,53.6 C84.712,51.544 85.339,49.82 85.382,48.424 C85.424,47.026 85.092,46.291 84.387,46.212 C84.012,46.2 83.588,46.656 83.109,47.576 C82.632,48.501 82.188,49.676 81.776,51.104 C81.366,52.533 81.038,54.105 80.792,55.82 C80.546,57.536 80.465,59.157 80.553,60.679 C80.638,62.203 80.942,63.546 81.462,64.707 C81.983,65.869 82.813,66.586 83.953,66.857 C84.86,67.103 85.763,67.073 86.67,66.76 C87.571,66.45 88.413,65.959 89.192,65.287 C89.971,64.617 90.669,63.79 91.28,62.808 C91.891,61.826 92.358,60.766 92.678,59.624 C93.12,58.287 93.518,57.634 93.869,57.676 C94.222,57.713 94.273,58.439 94.025,59.855 C93.788,61.407 93.376,63.09 92.788,64.904 C92.203,66.72 91.404,68.369 90.393,69.846 C89.381,71.327 88.125,72.527 86.623,73.446 C85.122,74.365 83.316,74.732 81.204,74.547" id="Fill-11" fill="#55bbc0" fill-rule="nonzero"></path>
                    <path d="M108.868,54.783 C109.414,55.712 109.798,56.787 110.021,57.999 C110.244,59.214 110.459,60.36 110.67,61.434 C110.879,62.511 111.131,63.394 111.425,64.09 C111.717,64.786 112.21,65.082 112.898,64.976 C113.217,64.901 113.539,64.605 113.868,64.086 C114.195,63.57 114.501,62.949 114.789,62.227 C115.073,61.503 115.321,60.738 115.53,59.928 C115.739,59.119 115.905,58.36 116.029,57.652 C116.153,56.942 116.307,56.428 116.488,56.108 C116.67,55.791 116.845,55.649 117.009,55.681 C117.175,55.714 117.297,55.911 117.376,56.278 C117.453,56.643 117.429,57.181 117.307,57.887 C117.228,58.595 117.07,59.713 116.832,61.247 C116.593,62.779 116.216,64.325 115.7,65.881 C115.183,67.44 114.456,68.842 113.517,70.089 C112.58,71.333 111.348,72.023 109.824,72.155 C108.852,72.24 107.85,71.954 106.817,71.297 C105.782,70.645 104.865,69.469 104.066,67.77 C103.55,66.652 103.232,65.538 103.112,64.431 C102.992,63.325 102.921,62.227 102.893,61.135 C102.869,60.042 102.812,59.001 102.725,58.005 C102.641,57.013 102.369,56.049 101.915,55.111 C101.596,56.769 101.314,58.352 101.073,59.863 C100.831,61.373 100.661,62.759 100.562,64.025 C100.464,65.291 100.468,66.407 100.574,67.375 C100.683,68.345 100.902,69.114 101.231,69.692 C101.777,70.621 101.797,71.386 101.292,71.989 C100.785,72.593 100.038,72.963 99.05,73.093 C98.058,73.226 96.999,73.062 95.866,72.603 C94.73,72.143 93.835,71.339 93.176,70.183 C92.458,68.897 92.147,67.052 92.239,64.644 C92.334,62.241 92.636,59.585 93.15,56.678 C93.665,53.77 94.298,50.747 95.047,47.612 C95.799,44.473 96.483,41.492 97.098,38.67 C97.711,35.848 98.157,33.342 98.431,31.154 C98.707,28.967 98.614,27.38 98.157,26.396 C97.812,25.637 97.908,25.033 98.454,24.589 C98.997,24.148 99.728,23.99 100.645,24.12 C101.564,24.246 102.526,24.735 103.532,25.579 C104.534,26.421 105.303,27.752 105.833,29.566 C106.095,30.428 106.162,31.609 106.038,33.109 C105.912,34.61 105.689,36.316 105.368,38.23 C105.044,40.143 104.64,42.201 104.159,44.408 C103.676,46.614 103.207,48.833 102.749,51.059 C103.836,50.173 104.632,49.044 105.143,47.673 C105.652,46.305 106.109,44.891 106.517,43.436 C106.925,41.981 107.42,40.575 108,39.222 C108.582,37.867 109.534,36.785 110.859,35.969 C111.873,35.324 112.951,35.01 114.093,35.026 C115.234,35.044 116.207,35.249 117.009,35.643 C117.812,36.04 118.308,36.542 118.502,37.154 C118.695,37.765 118.372,38.341 117.536,38.879 C116.611,39.475 115.96,40.157 115.585,40.936 C115.211,41.71 114.878,42.568 114.586,43.499 C114.296,44.432 113.917,45.419 113.45,46.461 C112.983,47.504 112.212,48.559 111.141,49.629 C110.411,50.345 109.684,50.919 108.954,51.354 C108.225,51.792 107.497,52.135 106.775,52.384 C107.525,52.969 108.221,53.77 108.868,54.783" id="Fill-12" fill="#55bbc0" fill-rule="nonzero"></path>
                    <path d="M137.99,29.99 C139.34,29.635 140.579,29.624 141.704,29.953 C142.83,30.282 143.806,30.842 144.64,31.627 C145.471,32.412 146.129,33.39 146.61,34.561 C147.095,35.732 147.348,36.986 147.369,38.319 C147.423,40.027 147.233,41.413 146.802,42.474 C146.37,43.537 145.829,44.333 145.185,44.864 C144.54,45.396 143.842,45.707 143.087,45.798 C142.332,45.887 141.659,45.84 141.072,45.65 C140.482,45.465 140.052,45.169 139.778,44.765 C139.506,44.361 139.492,43.931 139.739,43.481 C140.019,42.886 140.218,42.286 140.332,41.681 C140.447,41.076 140.482,40.526 140.439,40.029 C140.395,39.532 140.275,39.112 140.078,38.773 C139.881,38.432 139.662,38.229 139.417,38.154 C138.932,38.051 138.528,38.207 138.205,38.615 C137.883,39.027 137.68,39.565 137.597,40.242 C137.512,40.914 137.587,41.658 137.826,42.468 C138.063,43.282 138.502,44.065 139.141,44.82 C141.046,46.987 142.41,49.119 143.237,51.213 C144.063,53.309 144.497,55.273 144.538,57.098 C144.577,58.93 144.28,60.585 143.647,62.071 C143.014,63.554 142.154,64.763 141.068,65.69 C139.977,66.616 138.721,67.237 137.296,67.553 C135.868,67.867 134.419,67.778 132.946,67.287 C131.67,66.877 130.582,66.149 129.681,65.11 C128.779,64.069 128.105,62.878 127.654,61.535 C127.204,60.192 126.983,58.761 126.993,57.236 C127.001,55.708 127.279,54.233 127.823,52.806 C128.334,51.572 129.044,50.69 129.951,50.156 C130.858,49.625 131.739,49.347 132.595,49.318 C133.451,49.29 134.145,49.458 134.677,49.817 C135.209,50.174 135.353,50.604 135.111,51.1 C134.663,51.995 134.375,52.926 134.245,53.888 C134.115,54.853 134.095,55.736 134.19,56.537 C134.285,57.339 134.46,58.002 134.72,58.526 C134.981,59.053 135.257,59.325 135.543,59.348 C135.783,59.374 136.138,59.189 136.603,58.792 C137.071,58.394 137.396,57.757 137.581,56.884 C137.767,56.012 137.672,54.924 137.298,53.622 C136.921,52.325 136.01,50.759 134.563,48.933 C133.07,47.111 132.055,45.187 131.522,43.162 C130.988,41.137 130.893,39.214 131.234,37.4 C131.577,35.584 132.321,34.009 133.468,32.67 C134.614,31.335 136.12,30.438 137.99,29.99" id="Fill-13" fill="#55bbc0" fill-rule="nonzero"></path>
                    <path d="M172.394,30.068 C172.039,30.91 171.666,31.979 171.28,33.277 C170.891,34.574 170.526,36 170.185,37.555 C169.844,39.111 169.507,40.714 169.176,42.363 C168.842,44.015 168.537,45.6 168.267,47.126 C167.995,48.653 167.758,50.056 167.561,51.336 C167.362,52.614 167.2,53.643 167.078,54.416 C166.936,55.524 166.948,56.337 167.111,56.845 C167.275,57.356 167.476,57.624 167.718,57.65 C168.091,57.571 168.448,57.277 168.785,56.77 C169.122,56.266 169.438,55.641 169.73,54.899 C170.024,54.16 170.264,53.363 170.451,52.511 C170.639,51.663 170.798,50.873 170.925,50.147 C171.136,48.747 171.471,48.075 171.928,48.13 C172.388,48.185 172.512,48.936 172.305,50.384 C172.177,51.111 172.003,52.259 171.782,53.826 C171.561,55.396 171.175,56.979 170.623,58.577 C170.071,60.174 169.314,61.613 168.353,62.885 C167.391,64.161 166.129,64.867 164.57,65.005 C163.668,65.083 162.793,64.861 161.937,64.34 C161.077,63.82 160.458,62.978 160.072,61.82 C159.603,63.005 158.885,63.95 157.923,64.654 C156.958,65.357 155.98,65.752 154.987,65.839 C152.668,66.04 150.899,65.279 149.675,63.547 C148.45,61.82 147.683,59.574 147.372,56.812 C147.058,54.051 147.167,51.038 147.691,47.773 C148.218,44.512 149.057,41.434 150.213,38.543 C151.366,35.654 152.8,33.217 154.509,31.234 C156.219,29.25 158.114,28.166 160.198,27.984 C161.427,27.878 162.41,28.089 163.152,28.621 C163.887,29.154 164.416,29.905 164.741,30.879 C165.532,30.094 166.439,29.455 167.47,28.958 C168.499,28.465 169.438,28.158 170.286,28.035 C171.134,27.915 171.784,28.012 172.242,28.329 C172.699,28.649 172.749,29.227 172.394,30.068 M156.166,57.228 C156.46,57.299 156.813,56.838 157.229,55.848 C157.643,54.858 158.057,53.606 158.473,52.091 C158.889,50.577 159.281,48.934 159.652,47.16 C160.023,45.387 160.307,43.731 160.506,42.189 C160.705,40.645 160.794,39.338 160.772,38.269 C160.752,37.197 160.592,36.629 160.301,36.556 C159.961,36.491 159.583,36.94 159.169,37.906 C158.751,38.874 158.335,40.113 157.919,41.627 C157.503,43.141 157.122,44.798 156.777,46.59 C156.434,48.382 156.16,50.051 155.963,51.594 C155.764,53.138 155.663,54.448 155.661,55.518 C155.659,56.589 155.827,57.163 156.166,57.228" id="Fill-14" fill="#55bbc0" fill-rule="nonzero"></path>
                    <path d="M195.481,48.006 C195.692,46.606 196.015,45.938 196.449,45.993 C196.885,46.05 196.997,46.804 196.79,48.251 C196.709,48.975 196.545,50.122 196.303,51.692 C196.056,53.263 195.66,54.846 195.108,56.444 C194.556,58.041 193.799,59.478 192.837,60.752 C191.876,62.028 190.614,62.734 189.053,62.87 C187.917,62.97 186.828,62.791 185.789,62.333 C184.748,61.876 183.912,61.054 183.285,59.869 C182.84,59.147 182.558,58.228 182.439,57.118 C182.317,56.008 182.282,54.762 182.327,53.374 C182.372,51.987 182.516,50.499 182.759,48.904 C183.001,47.308 183.285,45.662 183.616,43.964 C183.843,42.754 184.062,41.565 184.271,40.403 C184.478,39.24 184.64,38.216 184.754,37.323 C184.865,36.432 184.9,35.724 184.855,35.204 C184.809,34.683 184.644,34.435 184.362,34.46 C183.887,34.502 183.396,35.141 182.883,36.377 C182.37,37.613 181.903,39.084 181.481,40.79 C181.16,42.582 180.783,44.426 180.353,46.322 C179.921,48.217 179.568,50.039 179.29,51.778 C179.014,53.52 178.892,55.14 178.928,56.639 C178.963,58.137 179.284,59.384 179.898,60.379 C180.456,61.332 180.465,62.117 179.925,62.738 C179.381,63.355 178.604,63.733 177.591,63.869 C176.577,64.006 175.503,63.836 174.365,63.365 C173.225,62.891 172.32,62.065 171.646,60.882 C170.912,59.565 170.512,58.003 170.451,56.197 C170.39,54.391 170.52,52.484 170.847,50.477 C171.172,48.472 171.602,46.419 172.133,44.323 C172.665,42.227 173.146,40.218 173.576,38.297 C174.004,36.375 174.292,34.622 174.44,33.037 C174.588,31.451 174.426,30.152 173.957,29.144 C173.604,28.367 173.704,27.748 174.26,27.295 C174.816,26.843 175.568,26.682 176.508,26.814 C177.449,26.944 178.433,27.445 179.464,28.308 C180.491,29.174 181.276,30.534 181.82,32.394 C182.562,30.517 183.522,28.931 184.695,27.638 C185.87,26.344 187.189,25.633 188.658,25.504 C190.928,25.305 192.484,26.208 193.327,28.208 C194.167,30.207 194.207,33.388 193.442,37.745 C193.284,38.664 193.075,39.816 192.813,41.196 C192.553,42.578 192.306,43.984 192.073,45.408 C191.841,46.835 191.622,48.18 191.423,49.434 C191.222,50.692 191.08,51.658 190.997,52.332 C190.857,53.488 190.918,54.318 191.176,54.819 C191.435,55.322 191.752,55.556 192.131,55.523 C192.557,55.485 192.939,55.215 193.276,54.706 C193.613,54.202 193.927,53.567 194.219,52.8 C194.511,52.037 194.761,51.23 194.972,50.377 C195.185,49.525 195.354,48.734 195.481,48.006" id="Fill-15" fill="#55bbc0" fill-rule="nonzero"></path>
                    <g id="Group-25">
                        <g id="Fill-16-Clipped">
                            <g>
                                <mask id="mask-2" fill="white">
                                    <use xlink:href="#path-1"></use>
                                </mask>
                                <g id="path-1"></g>
                                <path d="M208.387,23.785 C209.949,23.649 211.154,24.069 212.001,25.043 C212.569,22.275 212.952,19.824 213.149,17.686 C213.342,15.547 213.204,13.975 212.737,12.966 C212.382,12.185 212.481,11.558 213.037,11.081 C213.591,10.604 214.34,10.43 215.281,10.562 C216.223,10.696 217.205,11.193 218.236,12.057 C219.264,12.92 220.048,14.283 220.593,16.142 C220.857,16.976 220.936,18.15 220.829,19.662 C220.721,21.174 220.504,22.898 220.171,24.83 C219.837,26.768 219.435,28.843 218.962,31.051 C218.485,33.263 218.012,35.484 217.54,37.72 C217.067,39.956 216.627,42.15 216.219,44.305 C215.811,46.464 215.517,48.432 215.338,50.211 C215.2,51.366 215.261,52.197 215.519,52.697 C215.777,53.2 216.097,53.435 216.474,53.401 C216.899,53.366 217.282,53.094 217.619,52.587 C217.956,52.082 218.272,51.445 218.562,50.68 C218.853,49.917 219.104,49.109 219.315,48.255 C219.528,47.403 219.697,46.612 219.826,45.885 C220.084,44.481 220.417,43.81 220.829,43.87 C221.239,43.929 221.34,44.682 221.133,46.129 C221.054,46.853 220.89,48.001 220.646,49.57 C220.401,51.142 220.015,52.725 219.486,54.318 C218.956,55.913 218.215,57.351 217.252,58.624 C216.29,59.9 215.03,60.606 213.469,60.744 C212.094,60.863 211.01,60.598 210.217,59.953 C209.42,59.307 208.793,58.553 208.338,57.684 C207.865,58.826 207.147,59.744 206.185,60.448 C205.219,61.152 204.215,61.549 203.176,61.639 C200.857,61.842 199.086,61.079 197.864,59.35 C196.641,57.621 195.874,55.375 195.559,52.613 C195.249,49.852 195.356,46.839 195.882,43.574 C196.407,40.313 197.247,37.234 198.402,34.344 C199.558,31.455 200.987,29.018 202.699,27.035 C204.41,25.051 206.305,23.966 208.387,23.785 M204.428,53.021 C204.72,53.092 205.073,52.632 205.489,51.642 C205.901,50.652 206.317,49.4 206.735,47.886 C207.149,46.374 207.531,44.731 207.877,42.959 C208.224,41.188 208.496,39.534 208.697,37.99 C208.894,36.446 208.985,35.138 208.961,34.07 C208.939,32.999 208.784,32.429 208.492,32.358 C208.153,32.291 207.784,32.741 207.391,33.705 C206.999,34.669 206.595,35.91 206.179,37.422 C205.763,38.936 205.37,40.592 205.002,42.387 C204.635,44.183 204.361,45.851 204.187,47.391 C204.012,48.935 203.923,50.24 203.923,51.313 C203.919,52.386 204.087,52.956 204.428,53.021" id="Fill-16" fill="#55bbc0" fill-rule="nonzero" mask="url(#mask-2)"></path>
                            </g>
                        </g>
                        <g id="Fill-18-Clipped" transform="translate(13.000000, 31.000000)">
                            <g>
                                <mask id="mask-4" fill="white">
                                    <use xlink:href="#path-3"></use>
                                </mask>
                                <g id="path-3"></g>
                                <path d="M20.7585922,88.2273396 C56.8537861,84.4300705 57.6095665,42.6771835 99.7823838,45.5754712 C69.0470888,51.787097 59.4035437,98.0684481 20.7585922,88.2273396" id="Fill-18" fill="#55bbc0" fill-rule="nonzero" mask="url(#mask-4)"></path>
                            </g>
                        </g>
                        <g id="Fill-19-Clipped" transform="translate(13.000000, 31.000000)">
                            <g>
                                <mask id="mask-6" fill="white">
                                    <use xlink:href="#path-5"></use>
                                </mask>
                                <g id="path-5"></g>
                                <path d="M48.4333768,86.842661 C84.3309461,81.7949424 83.2226461,40.0491201 125.491605,41.4814853 C95.0574205,48.7539915 87.4875981,95.3350031 48.4333768,86.842661" id="Fill-19" fill="#55bbc0" fill-rule="nonzero" mask="url(#mask-6)"></path>
                            </g>
                        </g>
                        <g id="Fill-20-Clipped" transform="translate(13.000000, 31.000000)">
                            <g>
                                <mask id="mask-8" fill="white">
                                    <use xlink:href="#path-7"></use>
                                </mask>
                                <g id="path-7"></g>
                                <path d="M11.4522106,71.1484595 C36.1319147,90.1377486 53.1363076,58.6545611 68.0756572,47.8379371 C47.0439959,46.3567078 36.3989749,71.814895 11.4522106,71.1484595" id="Fill-20" fill="#55bbc0" fill-rule="nonzero" mask="url(#mask-8)"></path>
                            </g>
                        </g>
                        <g id="Fill-21-Clipped" transform="translate(13.000000, 31.000000)">
                            <g>
                                <mask id="mask-10" fill="white">
                                    <use xlink:href="#path-9"></use>
                                </mask>
                                <g id="path-9"></g>
                                <path d="M74.228725,90.1136109 C103.728199,102.66697 110.679109,68.3396579 121.840224,54.4228138 C101.113679,57.9004058 98.4858063,84.9351956 74.228725,90.1136109" id="Fill-21" fill="#55bbc0" fill-rule="nonzero" mask="url(#mask-10)"></path>
                            </g>
                        </g>
                        <g id="Fill-22-Clipped" transform="translate(13.000000, 31.000000)">
                            <g>
                                <mask id="mask-12" fill="white">
                                    <use xlink:href="#path-11"></use>
                                </mask>
                                <g id="path-11"></g>
                                <path d="M0,51.7505961 C6.326657,71.0795788 31.9717838,60.9558828 42.985348,51.7712014 C42.985348,51.7712014 15.9661962,58.4855974 0,51.7505961" id="Fill-22" fill="#55bbc0" fill-rule="nonzero" mask="url(#mask-12)"></path>
                            </g>
                        </g>
                        <g id="Fill-23-Clipped" transform="translate(13.000000, 31.000000)">
                            <g>
                                <mask id="mask-14" fill="white">
                                    <use xlink:href="#path-13"></use>
                                </mask>
                                <g id="path-13"></g>
                                <path d="M105.54087,93.2220731 C127.9539,96.9863736 129.308563,72.2399536 124.999547,59.4240233 C124.999547,59.4240233 119.57355,83.7100612 105.54087,93.2220731" id="Fill-23" fill="#55bbc0" fill-rule="nonzero" mask="url(#mask-14)"></path>
                            </g>
                        </g>
                    </g>
                </g>
                <g id="#travellikealocal" transform="translate(134.458325, 13.045481) rotate(-5.000000) translate(-134.458325, -13.045481) translate(65.958325, 6.045481)" fill="#55bbc0">
                    <path d="M3.32422362,13.3283269 C3.29102033,13.510945 3.1983292,13.6672748 3.04614745,13.797321 C2.8939657,13.9273673 2.72656828,13.9923894 2.54395018,13.9923894 C2.36133208,13.9923894 2.21606986,13.9273673 2.10815917,13.797321 C2.00024847,13.6672748 1.96289533,13.510945 1.99609862,13.3283269 L2.58545409,10.0080144 L1.25732909,10.0080144 C1.07471099,10.0080144 0.930832219,9.94160881 0.825688465,9.80879565 C0.742680237,9.71471965 0.701176746,9.60127678 0.701176746,9.46846361 C0.701176746,9.42972644 0.703943645,9.38822295 0.709477527,9.3439519 C0.742680818,9.1613338 0.835371948,9.00500398 0.987553699,8.87495776 C1.13973545,8.74491153 1.30713286,8.6798894 1.48975096,8.6798894 L2.81787596,8.6798894 L3.28271971,6.0236394 L1.95459471,6.0236394 C1.77197661,6.0236394 1.62809784,5.95861726 1.52295409,5.82857104 C1.41781033,5.69852481 1.37907374,5.542195 1.40674315,5.3595769 C1.43994644,5.1769588 1.53402102,5.02062898 1.68896971,4.89058276 C1.84391841,4.76053653 2.01269927,4.6955144 2.19531737,4.6955144 L3.52344237,4.6955144 L4.10449706,1.3752019 C4.13770035,1.1925838 4.23039148,1.03625398 4.38257323,0.906207756 C4.53475498,0.776161532 4.7021524,0.711139396 4.8847705,0.711139396 C5.0673886,0.711139396 5.21265082,0.776161532 5.32056151,0.906207756 C5.42847221,1.03625398 5.46582535,1.1925838 5.43262206,1.3752019 L4.85156737,4.6955144 L6.84375487,4.6955144 L7.42480956,1.3752019 C7.45801285,1.1925838 7.55070398,1.03625398 7.70288573,0.906207756 C7.85506748,0.776161532 8.0224649,0.711139396 8.205083,0.711139396 C8.3877011,0.711139396 8.53296332,0.776161532 8.64087401,0.906207756 C8.74878471,1.03625398 8.78613785,1.1925838 8.75293456,1.3752019 L8.17187987,4.6955144 L9.50000487,4.6955144 C9.68262297,4.6955144 9.82650174,4.75915308 9.9316455,4.88643236 C10.0091198,4.98604224 10.0478564,5.10225201 10.0478564,5.23506518 C10.0478564,5.27380235 10.0450895,5.31530584 10.0395557,5.3595769 C10.0118862,5.542195 9.92057856,5.69852481 9.76562987,5.82857104 C9.61068118,5.95861726 9.44190032,6.0236394 9.25928221,6.0236394 L7.93115721,6.0236394 L7.46631346,8.6798894 L8.79443846,8.6798894 C8.97705657,8.6798894 9.12231878,8.74491153 9.23022948,8.87495776 C9.33814018,9.00500398 9.37549332,9.1613338 9.34229003,9.3439519 C9.30908674,9.52657 9.21639561,9.68289981 9.06421386,9.81294604 C8.9120321,9.94299226 8.74463469,10.0080144 8.56201659,10.0080144 L7.23389159,10.0080144 L6.64453612,13.3283269 C6.61133283,13.510945 6.5186417,13.6672748 6.36645995,13.797321 C6.2142782,13.9273673 6.04688078,13.9923894 5.86426268,13.9923894 C5.68164458,13.9923894 5.53638236,13.9273673 5.42847167,13.797321 C5.32056097,13.6672748 5.28320783,13.510945 5.31641112,13.3283269 L5.90576659,10.0080144 L3.91357909,10.0080144 L3.32422362,13.3283269 Z M4.61084471,6.0236394 L4.14600096,8.6798894 L6.13818846,8.6798894 L6.60303221,6.0236394 L4.61084471,6.0236394 Z M16.0327197,12.6642644 C16.2153378,12.6642644 16.3716676,12.7292865 16.5017139,12.8593328 C16.6317601,12.989379 16.6967822,13.1457088 16.6967822,13.3283269 C16.6967822,13.510945 16.6317601,13.6672748 16.5017139,13.797321 C16.3716676,13.9273673 16.2153378,13.9923894 16.0327197,13.9923894 C13.819167,13.9923894 12.7124072,12.8856296 12.7124072,10.6720769 L12.7124072,6.0236394 L12.0483447,6.0236394 C11.8657266,6.0236394 11.7093968,5.95861726 11.5793506,5.82857104 C11.4493044,5.69852481 11.3842822,5.542195 11.3842822,5.3595769 C11.3842822,5.1769588 11.4493044,5.02062898 11.5793506,4.89058276 C11.7093968,4.76053653 11.8657266,4.6955144 12.0483447,4.6955144 L12.7124072,4.6955144 L12.7124072,1.3752019 C12.7124072,1.1925838 12.7774294,1.03625398 12.9074756,0.906207756 C13.0375218,0.776161532 13.1938516,0.711139396 13.3764697,0.711139396 C13.5590878,0.711139396 13.7154176,0.776161532 13.8454639,0.906207756 C13.9755101,1.03625398 14.0405322,1.1925838 14.0405322,1.3752019 L14.0405322,4.6955144 L15.376958,4.6955144 C15.5595761,4.6955144 15.7159059,4.76053653 15.8459521,4.89058276 C15.9759984,5.02062898 16.0410205,5.1769588 16.0410205,5.3595769 C16.0410205,5.542195 15.9759984,5.69852481 15.8459521,5.82857104 C15.7159059,5.95861726 15.5595761,6.0236394 15.376958,6.0236394 L14.0405322,6.0236394 L14.0405322,10.6720769 C14.0405322,12.0002085 14.7045881,12.6642644 16.0327197,12.6642644 Z M18.0249072,5.3595769 C18.0249072,5.1769588 18.0899294,5.02062898 18.2199756,4.89058276 C18.3500218,4.76053653 18.5063516,4.6955144 18.6889697,4.6955144 C18.8715878,4.6955144 19.0279176,4.76053653 19.1579639,4.89058276 C19.2880101,5.02062898 19.3530322,5.1769588 19.3530322,5.3595769 L19.3530322,6.09004565 C20.2827244,5.1603535 21.3894841,4.6955144 22.6733447,4.6955144 C23.3208089,4.6955144 23.9156923,4.80619037 24.4580127,5.02754565 C24.5576226,5.06628282 24.6489302,5.12438771 24.7319385,5.20186205 C24.8592177,5.33467522 24.9228564,5.49238848 24.9228564,5.67500658 C24.9228564,5.85762468 24.8578343,6.0139545 24.7277881,6.14400072 C24.5977419,6.27404695 24.441412,6.33906908 24.2587939,6.33906908 C24.1536502,6.33906908 24.0568087,6.31693389 23.9682666,6.27266283 C23.575361,6.10664638 23.1437247,6.0236394 22.6733447,6.0236394 C21.7547203,6.0236394 20.9716878,6.34736663 20.3242236,6.9948308 C19.6767594,7.64229498 19.3530322,8.42532751 19.3530322,9.3439519 L19.3530322,13.3283269 C19.3530322,13.510945 19.2880101,13.6672748 19.1579639,13.797321 C19.0279176,13.9273673 18.8715878,13.9923894 18.6889697,13.9923894 C18.5063516,13.9923894 18.3500218,13.9273673 18.2199756,13.797321 C18.0899294,13.6672748 18.0249072,13.510945 18.0249072,13.3283269 L18.0249072,5.3595769 Z M30.6420947,6.0236394 C29.7234703,6.0236394 28.9404378,6.34736663 28.2929736,6.9948308 C27.6455094,7.64229498 27.3217822,8.42532751 27.3217822,9.3439519 C27.3217822,10.2625763 27.6455094,11.0456088 28.2929736,11.693073 C28.9404378,12.3405372 29.7234703,12.6642644 30.6420947,12.6642644 C31.5607191,12.6642644 32.3437516,12.3405372 32.9912158,11.693073 C33.63868,11.0456088 33.9624072,10.2625763 33.9624072,9.3439519 C33.9624072,8.42532751 33.63868,7.64229498 32.9912158,6.9948308 C32.3437516,6.34736663 31.5607191,6.0236394 30.6420947,6.0236394 Z M33.9624072,12.5978581 C33.0327151,13.5275503 31.9259553,13.9923894 30.6420947,13.9923894 C29.3582341,13.9923894 28.262542,13.5386179 27.3549853,12.6310613 C26.4474287,11.7235047 25.9936572,10.6278125 25.9936572,9.3439519 C25.9936572,8.06009131 26.4474287,6.96439914 27.3549853,6.05684252 C28.262542,5.1492859 29.3582341,4.6955144 30.6420947,4.6955144 C31.9259553,4.6955144 33.0216475,5.1492859 33.9292041,6.05684252 C34.8367607,6.96439914 35.2905322,8.06009131 35.2905322,9.3439519 L35.2905322,13.3283269 C35.2905322,13.510945 35.2255101,13.6672748 35.0954639,13.797321 C34.9654176,13.9273673 34.8090878,13.9923894 34.6264697,13.9923894 C34.4438516,13.9923894 34.2875218,13.9273673 34.1574756,13.797321 C34.0274294,13.6672748 33.9624072,13.510945 33.9624072,13.3283269 L33.9624072,12.5978581 Z M41.408208,13.8097722 C41.2864626,13.9315176 41.1287493,13.9923894 40.9350635,13.9923894 C40.7413776,13.9923894 40.5836643,13.9287507 40.4619189,13.8014714 C40.4231818,13.7682681 40.3872121,13.715697 40.3540088,13.6437566 L36.6684619,5.61690111 C36.6352586,5.53942677 36.6186572,5.45365289 36.6186572,5.3595769 C36.6186572,5.1769588 36.6836794,5.02062898 36.8137256,4.89058276 C36.9437718,4.76053653 37.1001016,4.6955144 37.2827197,4.6955144 C37.4653378,4.6955144 37.6230511,4.75915308 37.7558642,4.88643236 C37.8001353,4.93070342 37.8416388,4.98880831 37.880376,5.06074877 L40.9350635,11.7345769 L43.989751,5.06074877 C44.0284881,4.98880831 44.0727585,4.93070342 44.1225635,4.88643236 C44.2498427,4.75915308 44.4047891,4.6955144 44.5874072,4.6955144 C44.7700253,4.6955144 44.9263551,4.76053653 45.0564014,4.89058276 C45.1864476,5.02062898 45.2514697,5.1769588 45.2514697,5.3595769 C45.2514697,5.45365289 45.2348683,5.53942677 45.201665,5.61690111 L41.5161182,13.6437566 C41.4829149,13.715697 41.4469452,13.771035 41.408208,13.8097722 Z M54.4902392,8.6798894 C54.3684938,8.04349299 54.0641349,7.4818124 53.5771533,6.9948308 C52.9296891,6.34736663 52.1466566,6.0236394 51.2280322,6.0236394 C50.3094078,6.0236394 49.5263753,6.34736663 48.8789111,6.9948308 C48.3919295,7.4818124 48.0875706,8.04349299 47.9658252,8.6798894 L54.4902392,8.6798894 Z M53.7846728,11.7345769 C53.9672909,11.7345769 54.1236208,11.799599 54.253667,11.9296453 C54.3837132,12.0596915 54.4487353,12.2160213 54.4487353,12.3986394 C54.4487353,12.5812575 54.3850967,12.7389708 54.2578174,12.8717839 C53.4000657,13.618858 52.3901474,13.9923894 51.2280322,13.9923894 C49.9441716,13.9923894 48.8484795,13.5386179 47.9409228,12.6310613 C47.0333662,11.7235047 46.5795947,10.6278125 46.5795947,9.3439519 C46.5795947,8.06009131 47.0333662,6.96439914 47.9409228,6.05684252 C48.8484795,5.1492859 49.9441716,4.6955144 51.2280322,4.6955144 C52.5118928,4.6955144 53.607585,5.1492859 54.5151416,6.05684252 C55.4226982,6.96439914 55.8764697,8.06009131 55.8764697,9.3439519 C55.8764697,9.52657 55.8114476,9.68289981 55.6814014,9.81294604 C55.5513551,9.94299226 55.3950253,10.0080144 55.2124072,10.0080144 L47.9658252,10.0080144 C48.0875706,10.6444108 48.3919295,11.2060914 48.8789111,11.693073 C49.5263753,12.3405372 50.3094078,12.6642644 51.2280322,12.6642644 C52.0581145,12.6642644 52.7719745,12.401409 53.3696338,11.8756902 C53.4913792,11.7816142 53.6297241,11.7345769 53.7846728,11.7345769 Z M57.2045947,1.3752019 C57.2045947,1.1925838 57.2696169,1.03625398 57.3996631,0.906207756 C57.5297093,0.776161532 57.6860391,0.711139396 57.8686572,0.711139396 C58.0512753,0.711139396 58.2076051,0.776161532 58.3376514,0.906207756 C58.4676976,1.03625398 58.5327197,1.1925838 58.5327197,1.3752019 L58.5327197,12.6642644 L59.1967822,12.6642644 C59.3794003,12.6642644 59.5357301,12.7292865 59.6657764,12.8593328 C59.7958226,12.989379 59.8608447,13.1457088 59.8608447,13.3283269 C59.8608447,13.510945 59.7958226,13.6672748 59.6657764,13.797321 C59.5357301,13.9273673 59.3794003,13.9923894 59.1967822,13.9923894 L57.8686572,13.9923894 C57.6860391,13.9923894 57.5297093,13.9273673 57.3996631,13.797321 C57.2696169,13.6672748 57.2045947,13.510945 57.2045947,13.3283269 L57.2045947,1.3752019 Z M61.1889697,1.3752019 C61.1889697,1.1925838 61.2539919,1.03625398 61.3840381,0.906207756 C61.5140843,0.776161532 61.6704141,0.711139396 61.8530322,0.711139396 C62.0356503,0.711139396 62.1919801,0.776161532 62.3220264,0.906207756 C62.4520726,1.03625398 62.5170947,1.1925838 62.5170947,1.3752019 L62.5170947,12.6642644 L63.1811572,12.6642644 C63.3637753,12.6642644 63.5201051,12.7292865 63.6501514,12.8593328 C63.7801976,12.989379 63.8452197,13.1457088 63.8452197,13.3283269 C63.8452197,13.510945 63.7801976,13.6672748 63.6501514,13.797321 C63.5201051,13.9273673 63.3637753,13.9923894 63.1811572,13.9923894 L61.8530322,13.9923894 C61.6704141,13.9923894 61.5140843,13.9273673 61.3840381,13.797321 C61.2539919,13.6672748 61.1889697,13.510945 61.1889697,13.3283269 L61.1889697,1.3752019 Z M67.3315478,2.7033269 C67.3315478,2.93021605 67.2499243,3.12528246 67.0866748,3.28853197 C66.9234253,3.45178149 66.7283589,3.53340502 66.5014697,3.53340502 C66.2745806,3.53340502 66.0795142,3.45178149 65.9162646,3.28853197 C65.7530151,3.12528246 65.6713916,2.93021605 65.6713916,2.7033269 C65.6713916,2.47643774 65.7530151,2.28137133 65.9162646,2.11812182 C66.0795142,1.9548723 66.2745806,1.87324877 66.5014697,1.87324877 C66.7283589,1.87324877 66.9234253,1.9548723 67.0866748,2.11812182 C67.2499243,2.28137133 67.3315478,2.47643774 67.3315478,2.7033269 Z M65.8374072,5.3595769 C65.8374072,5.1769588 65.9024294,5.02062898 66.0324756,4.89058276 C66.1625218,4.76053653 66.3188516,4.6955144 66.5014697,4.6955144 C66.6840878,4.6955144 66.8404176,4.76053653 66.9704639,4.89058276 C67.1005101,5.02062898 67.1655322,5.1769588 67.1655322,5.3595769 L67.1655322,13.3283269 C67.1655322,13.510945 67.1005101,13.6672748 66.9704639,13.797321 C66.8404176,13.9273673 66.6840878,13.9923894 66.5014697,13.9923894 C66.3188516,13.9923894 66.1625218,13.9273673 66.0324756,13.797321 C65.9024294,13.6672748 65.8374072,13.510945 65.8374072,13.3283269 L65.8374072,5.3595769 Z M70.4858447,8.44746752 L76.1054736,4.79512377 C76.2106174,4.72871719 76.3295941,4.6955144 76.4624072,4.6955144 C76.6450253,4.6955144 76.8013551,4.76053653 76.9314014,4.89058276 C77.0614476,5.02062898 77.1264697,5.1769588 77.1264697,5.3595769 C77.1264697,5.542195 77.062831,5.69714136 76.9355517,5.82442065 C76.9023485,5.85762394 76.8719126,5.88529293 76.8442432,5.90742846 L72.9926807,8.4142644 L76.9438525,12.8634831 C77.0655979,12.9962963 77.1264697,13.1512427 77.1264697,13.3283269 C77.1264697,13.510945 77.0614476,13.6672748 76.9314014,13.797321 C76.8013551,13.9273673 76.6450253,13.9923894 76.4624072,13.9923894 C76.2797891,13.9923894 76.1193089,13.9259838 75.9809619,13.7931706 L71.8554736,9.14473315 L70.4858447,10.0329167 L70.4858447,13.3283269 C70.4858447,13.510945 70.4208226,13.6672748 70.2907764,13.797321 C70.1607301,13.9273673 70.0044003,13.9923894 69.8217822,13.9923894 C69.6391641,13.9923894 69.4828343,13.9273673 69.3527881,13.797321 C69.2227419,13.6672748 69.1577197,13.510945 69.1577197,13.3283269 L69.1577197,1.3752019 C69.1577197,1.1925838 69.2227419,1.03625398 69.3527881,0.906207756 C69.4828343,0.776161532 69.6391641,0.711139396 69.8217822,0.711139396 C70.0044003,0.711139396 70.1607301,0.776161532 70.2907764,0.906207756 C70.4208226,1.03625398 70.4858447,1.1925838 70.4858447,1.3752019 L70.4858447,8.44746752 Z M85.8339892,8.6798894 C85.7122438,8.04349299 85.4078849,7.4818124 84.9209033,6.9948308 C84.2734391,6.34736663 83.4904066,6.0236394 82.5717822,6.0236394 C81.6531578,6.0236394 80.8701253,6.34736663 80.2226611,6.9948308 C79.7356795,7.4818124 79.4313206,8.04349299 79.3095752,8.6798894 L85.8339892,8.6798894 Z M85.1284228,11.7345769 C85.3110409,11.7345769 85.4673708,11.799599 85.597417,11.9296453 C85.7274632,12.0596915 85.7924853,12.2160213 85.7924853,12.3986394 C85.7924853,12.5812575 85.7288467,12.7389708 85.6015674,12.8717839 C84.7438157,13.618858 83.7338974,13.9923894 82.5717822,13.9923894 C81.2879216,13.9923894 80.1922295,13.5386179 79.2846728,12.6310613 C78.3771162,11.7235047 77.9233447,10.6278125 77.9233447,9.3439519 C77.9233447,8.06009131 78.3771162,6.96439914 79.2846728,6.05684252 C80.1922295,5.1492859 81.2879216,4.6955144 82.5717822,4.6955144 C83.8556428,4.6955144 84.951335,5.1492859 85.8588916,6.05684252 C86.7664482,6.96439914 87.2202197,8.06009131 87.2202197,9.3439519 C87.2202197,9.52657 87.1551976,9.68289981 87.0251514,9.81294604 C86.8951051,9.94299226 86.7387753,10.0080144 86.5561572,10.0080144 L79.3095752,10.0080144 C79.4313206,10.6444108 79.7356795,11.2060914 80.2226611,11.693073 C80.8701253,12.3405372 81.6531578,12.6642644 82.5717822,12.6642644 C83.4018645,12.6642644 84.1157245,12.401409 84.7133838,11.8756902 C84.8351292,11.7816142 84.9734741,11.7345769 85.1284228,11.7345769 Z M93.1967822,6.0236394 C92.2781578,6.0236394 91.4951253,6.34736663 90.8476611,6.9948308 C90.2001969,7.64229498 89.8764697,8.42532751 89.8764697,9.3439519 C89.8764697,10.2625763 90.2001969,11.0456088 90.8476611,11.693073 C91.4951253,12.3405372 92.2781578,12.6642644 93.1967822,12.6642644 C94.1154066,12.6642644 94.8984391,12.3405372 95.5459033,11.693073 C96.1933675,11.0456088 96.5170947,10.2625763 96.5170947,9.3439519 C96.5170947,8.42532751 96.1933675,7.64229498 95.5459033,6.9948308 C94.8984391,6.34736663 94.1154066,6.0236394 93.1967822,6.0236394 Z M96.5170947,12.5978581 C95.5874026,13.5275503 94.4806428,13.9923894 93.1967822,13.9923894 C91.9129216,13.9923894 90.8172295,13.5386179 89.9096728,12.6310613 C89.0021162,11.7235047 88.5483447,10.6278125 88.5483447,9.3439519 C88.5483447,8.06009131 89.0021162,6.96439914 89.9096728,6.05684252 C90.8172295,5.1492859 91.9129216,4.6955144 93.1967822,4.6955144 C94.4806428,4.6955144 95.576335,5.1492859 96.4838916,6.05684252 C97.3914482,6.96439914 97.8452197,8.06009131 97.8452197,9.3439519 L97.8452197,13.3283269 C97.8452197,13.510945 97.7801976,13.6672748 97.6501514,13.797321 C97.5201051,13.9273673 97.3637753,13.9923894 97.1811572,13.9923894 C96.9985391,13.9923894 96.8422093,13.9273673 96.7121631,13.797321 C96.5821169,13.6672748 96.5170947,13.510945 96.5170947,13.3283269 L96.5170947,12.5978581 Z M99.1733447,1.3752019 C99.1733447,1.1925838 99.2383669,1.03625398 99.3684131,0.906207756 C99.4984593,0.776161532 99.6547891,0.711139396 99.8374072,0.711139396 C100.020025,0.711139396 100.176355,0.776161532 100.306401,0.906207756 C100.436448,1.03625398 100.50147,1.1925838 100.50147,1.3752019 L100.50147,12.6642644 L101.165532,12.6642644 C101.34815,12.6642644 101.50448,12.7292865 101.634526,12.8593328 C101.764573,12.989379 101.829595,13.1457088 101.829595,13.3283269 C101.829595,13.510945 101.764573,13.6672748 101.634526,13.797321 C101.50448,13.9273673 101.34815,13.9923894 101.165532,13.9923894 L99.8374072,13.9923894 C99.6547891,13.9923894 99.4984593,13.9273673 99.3684131,13.797321 C99.2383669,13.6672748 99.1733447,13.510945 99.1733447,13.3283269 L99.1733447,1.3752019 Z M112.454595,9.3439519 C112.454595,10.6278125 112.000823,11.7235047 111.093267,12.6310613 C110.18571,13.5386179 109.090018,13.9923894 107.806157,13.9923894 C106.522297,13.9923894 105.426604,13.5386179 104.519048,12.6310613 C103.611491,11.7235047 103.15772,10.6278125 103.15772,9.3439519 C103.15772,8.06009131 103.611491,6.96439914 104.519048,6.05684252 C105.426604,5.1492859 106.522297,4.6955144 107.806157,4.6955144 C109.090018,4.6955144 110.18571,5.1492859 111.093267,6.05684252 C112.000823,6.96439914 112.454595,8.06009131 112.454595,9.3439519 Z M107.806157,6.0236394 C106.887533,6.0236394 106.1045,6.34736663 105.457036,6.9948308 C104.809572,7.64229498 104.485845,8.42532751 104.485845,9.3439519 C104.485845,10.2625763 104.809572,11.0456088 105.457036,11.693073 C106.1045,12.3405372 106.887533,12.6642644 107.806157,12.6642644 C108.724782,12.6642644 109.507814,12.3405372 110.155278,11.693073 C110.802742,11.0456088 111.12647,10.2625763 111.12647,9.3439519 C111.12647,8.42532751 110.802742,7.64229498 110.155278,6.9948308 C109.507814,6.34736663 108.724782,6.0236394 107.806157,6.0236394 Z M121.004399,11.7179753 C121.187018,11.7179753 121.343347,11.7829975 121.473394,11.9130437 C121.60344,12.0430899 121.668462,12.1994197 121.668462,12.3820378 C121.668462,12.5646559 121.599289,12.727903 121.460942,12.8717839 C120.603191,13.618858 119.593272,13.9923894 118.431157,13.9923894 C117.147297,13.9923894 116.051604,13.5386179 115.144048,12.6310613 C114.236491,11.7235047 113.78272,10.6278125 113.78272,9.3439519 C113.78272,8.06009131 114.236491,6.96439914 115.144048,6.05684252 C116.051604,5.1492859 117.147297,4.6955144 118.431157,4.6955144 C119.593272,4.6955144 120.603191,5.06904582 121.460942,5.81611986 C121.615891,5.95446691 121.693364,6.12601467 121.693364,6.3307683 C121.693364,6.5133864 121.628342,6.66971622 121.498296,6.79976244 C121.36825,6.92980867 121.21192,6.9948308 121.029302,6.9948308 C120.868819,6.9948308 120.727707,6.94502661 120.605962,6.84541674 C119.986167,6.29756244 119.261239,6.0236394 118.431157,6.0236394 C117.512533,6.0236394 116.7295,6.34736663 116.082036,6.9948308 C115.434572,7.64229498 115.110845,8.42532751 115.110845,9.3439519 C115.110845,10.2625763 115.434572,11.0456088 116.082036,11.693073 C116.7295,12.3405372 117.512533,12.6642644 118.431157,12.6642644 C119.261239,12.6642644 119.9834,12.3931083 120.597661,11.8507878 C120.713873,11.7622457 120.849451,11.7179753 121.004399,11.7179753 Z M127.728032,6.0236394 C126.809408,6.0236394 126.026375,6.34736663 125.378911,6.9948308 C124.731447,7.64229498 124.40772,8.42532751 124.40772,9.3439519 C124.40772,10.2625763 124.731447,11.0456088 125.378911,11.693073 C126.026375,12.3405372 126.809408,12.6642644 127.728032,12.6642644 C128.646657,12.6642644 129.429689,12.3405372 130.077153,11.693073 C130.724617,11.0456088 131.048345,10.2625763 131.048345,9.3439519 C131.048345,8.42532751 130.724617,7.64229498 130.077153,6.9948308 C129.429689,6.34736663 128.646657,6.0236394 127.728032,6.0236394 Z M131.048345,12.5978581 C130.118653,13.5275503 129.011893,13.9923894 127.728032,13.9923894 C126.444172,13.9923894 125.348479,13.5386179 124.440923,12.6310613 C123.533366,11.7235047 123.079595,10.6278125 123.079595,9.3439519 C123.079595,8.06009131 123.533366,6.96439914 124.440923,6.05684252 C125.348479,5.1492859 126.444172,4.6955144 127.728032,4.6955144 C129.011893,4.6955144 130.107585,5.1492859 131.015142,6.05684252 C131.922698,6.96439914 132.37647,8.06009131 132.37647,9.3439519 L132.37647,13.3283269 C132.37647,13.510945 132.311448,13.6672748 132.181401,13.797321 C132.051355,13.9273673 131.895025,13.9923894 131.712407,13.9923894 C131.529789,13.9923894 131.373459,13.9273673 131.243413,13.797321 C131.113367,13.6672748 131.048345,13.510945 131.048345,13.3283269 L131.048345,12.5978581 Z M133.704595,1.3752019 C133.704595,1.1925838 133.769617,1.03625398 133.899663,0.906207756 C134.029709,0.776161532 134.186039,0.711139396 134.368657,0.711139396 C134.551275,0.711139396 134.707605,0.776161532 134.837651,0.906207756 C134.967698,1.03625398 135.03272,1.1925838 135.03272,1.3752019 L135.03272,12.6642644 L135.696782,12.6642644 C135.8794,12.6642644 136.03573,12.7292865 136.165776,12.8593328 C136.295823,12.989379 136.360845,13.1457088 136.360845,13.3283269 C136.360845,13.510945 136.295823,13.6672748 136.165776,13.797321 C136.03573,13.9273673 135.8794,13.9923894 135.696782,13.9923894 L134.368657,13.9923894 C134.186039,13.9923894 134.029709,13.9273673 133.899663,13.797321 C133.769617,13.6672748 133.704595,13.510945 133.704595,13.3283269 L133.704595,1.3752019 Z"></path>
                </g>
                <g id="adventures" transform="translate(196.063220, 79.206318) rotate(-6.000000) translate(-196.063220, -79.206318) translate(138.063220, 66.206318)" fill="#55bbc0">
                    <path d="M13.4640332,8.02594307 C13.2540322,8.42261172 13.0265344,8.93010665 12.7815332,9.54844307 C12.536532,10.1667795 12.2973677,10.8492727 12.0640332,11.5959431 C11.8306987,12.3426135 11.5973677,13.1126058 11.3640332,13.9059431 C11.1306987,14.6992804 10.9148675,15.4634394 10.7165332,16.1984431 C10.5181989,16.9334467 10.3432006,17.6101066 10.1915332,18.2284431 C10.0398658,18.8467795 9.91736701,19.3426079 9.82403321,19.7159431 C9.70736596,20.2526124 9.67819958,20.6492751 9.73653321,20.9059431 C9.79486683,21.162611 9.88236596,21.3026096 9.99903321,21.3259431 C10.1857008,21.3026096 10.3723656,21.1742776 10.5590332,20.9409431 C10.7457008,20.7076086 10.9265323,20.4159448 11.1015332,20.0659431 C11.2765341,19.7159413 11.4281992,19.3367784 11.5565332,18.9284431 C11.6848672,18.5201077 11.7956994,18.1409448 11.8890332,17.7909431 C12.0523674,17.114273 12.2448654,16.7992762 12.4665332,16.8459431 C12.688201,16.89261 12.7173674,17.2659396 12.5540332,17.9659431 C12.4606994,18.3159448 12.3265341,18.8701059 12.1515332,19.6284431 C11.9765323,20.3867802 11.7198682,21.1451059 11.3815332,21.9034431 C11.0431982,22.6617802 10.6115358,23.3326068 10.0865332,23.9159431 C9.56153058,24.4992793 8.91403706,24.7909431 8.14403321,24.7909431 C7.70069766,24.7909431 7.28070186,24.6451112 6.88403321,24.3534431 C6.48736456,24.0617749 6.21903391,23.6242793 6.07903321,23.0409431 C5.79903181,23.6009459 5.40820238,24.0326082 4.90653321,24.3359431 C4.40486403,24.6392779 3.90903566,24.7909431 3.41903321,24.7909431 C2.27569416,24.7909431 1.44153583,24.3417809 0.916533209,23.4434431 C0.391530584,22.5451052 0.111533384,21.4134499 0.0765332093,20.0484431 C0.0415330343,18.6834362 0.222364559,17.2134509 0.619033209,15.6384431 C1.01570186,14.0634352 1.55819643,12.5934499 2.24653321,11.2284431 C2.93486998,9.86343625 3.73986193,8.7317809 4.66153321,7.83344307 C5.58320448,6.93510525 6.55736141,6.48594307 7.58403321,6.48594307 C8.19070291,6.48594307 8.66319818,6.63177495 9.00153321,6.92344307 C9.33986823,7.2151112 9.56736596,7.60594062 9.68403321,8.09594307 C10.1040353,7.74594132 10.5765306,7.4717774 11.1015332,7.27344307 C11.6265358,7.07510875 12.0990311,6.96427652 12.5190332,6.94094307 C12.9390353,6.91760962 13.2540322,6.9934422 13.4640332,7.16844307 C13.6740343,7.34344395 13.6740343,7.62927442 13.4640332,8.02594307 Z M4.36403321,20.6259431 C4.50403391,20.67261 4.69653198,20.4626121 4.94153321,19.9959431 C5.18653443,19.5292741 5.44319853,18.93428 5.71153321,18.2109431 C5.97986788,17.4876061 6.24236526,16.700114 6.49903321,15.8484431 C6.75570116,14.9967721 6.96569906,14.1976135 7.12903321,13.4509431 C7.29236736,12.7042727 7.39153303,12.0684457 7.42653321,11.5434431 C7.46153338,11.0184404 7.40903391,10.73261 7.26903321,10.6859431 C7.10569906,10.6392762 6.90153443,10.8434408 6.65653321,11.2984431 C6.41153198,11.7534453 6.15486788,12.3426061 5.88653321,13.0659431 C5.61819853,13.78928 5.36153443,14.5826054 5.11653321,15.4459431 C4.87153198,16.3092807 4.66736736,17.1142727 4.50403321,17.8609431 C4.34069906,18.6076135 4.23570011,19.2434404 4.18903321,19.7684431 C4.14236631,20.2934457 4.20069906,20.5792762 4.36403321,20.6259431 Z M20.2335551,6.59047154 C21.003559,6.59047154 21.5752199,6.84713564 21.9485551,7.36047154 C22.3452238,6.03046489 22.6368875,4.84631006 22.8235551,3.80797154 C23.0102227,2.76963301 23.0102227,1.99380744 22.8235551,1.48047154 C22.6835544,1.08380289 22.759387,0.780472587 23.0510551,0.570471537 C23.3427232,0.360470487 23.7160528,0.307971012 24.1710551,0.412971537 C24.6260574,0.517972062 25.0868861,0.803802537 25.5535551,1.27047154 C26.0202241,1.73714054 26.3468875,2.43713354 26.5335551,3.37047154 C26.6268889,3.79047364 26.6152224,4.36796786 26.4985551,5.10297154 C26.3818879,5.83797521 26.2010563,6.67213354 25.9560551,7.60547154 C25.7110539,8.53880954 25.4252234,9.53629956 25.0985551,10.5979715 C24.7718868,11.6596435 24.4452234,12.7271328 24.1185551,13.8004715 C23.7918868,14.8738102 23.4827232,15.929633 23.1910551,16.9679715 C22.899387,18.0063101 22.6718893,18.9571339 22.5085551,19.8204715 C22.3918879,20.3804743 22.3860546,20.7888036 22.4910551,21.0454715 C22.5960556,21.3021395 22.7418875,21.4304715 22.9285551,21.4304715 C23.1385562,21.4304715 23.3368875,21.313806 23.5235551,21.0804715 C23.7102227,20.847137 23.8910542,20.54964 24.0660551,20.1879715 C24.241056,19.8263031 24.3985544,19.4413069 24.5385551,19.0329715 C24.6785558,18.6246362 24.7952213,18.2454733 24.8885551,17.8954715 C25.0752227,17.2188015 25.2677208,16.9038046 25.4660551,16.9504715 C25.6643894,16.9971384 25.6818893,17.370468 25.5185551,18.0704715 C25.4485548,18.4204733 25.3202227,18.9746344 25.1335551,19.7329715 C24.9468875,20.4913087 24.6902234,21.2496344 24.3635551,22.0079715 C24.0368868,22.7663087 23.6110577,23.4371353 23.0860551,24.0204715 C22.5610525,24.6038078 21.913559,24.8954715 21.1435551,24.8954715 C20.4668851,24.8954715 19.9477236,24.7204733 19.5860551,24.3704715 C19.2243866,24.0204698 18.9502227,23.6238071 18.7635551,23.1804715 C18.4835537,23.7171409 18.0927243,24.1371367 17.5910551,24.4404715 C17.0893859,24.7438064 16.581891,24.8954715 16.0685551,24.8954715 C14.9252161,24.8954715 14.0910577,24.4463094 13.5660551,23.5479715 C13.0410525,22.6496337 12.7610553,21.5179784 12.7260551,20.1529715 C12.6910549,18.7879647 12.8718865,17.3179794 13.2685551,15.7429715 C13.6652238,14.1679637 14.2077183,12.6979784 14.8960551,11.3329715 C15.5843919,9.96796471 16.3893838,8.83630936 17.3110551,7.93797154 C18.2327264,7.03963371 19.2068833,6.59047154 20.2335551,6.59047154 Z M17.0485551,20.7304715 C17.1885558,20.7771384 17.3810539,20.5671405 17.6260551,20.1004715 C17.8710563,19.6338025 18.1277204,19.0388085 18.3960551,18.3154715 C18.6643898,17.5921346 18.9210539,16.8046425 19.1660551,15.9529715 C19.4110563,15.1013006 19.615221,14.3021419 19.7785551,13.5554715 C19.9418893,12.8088011 20.0410549,12.1729742 20.0760551,11.6479715 C20.1110553,11.1229689 20.0585558,10.8371384 19.9185551,10.7904715 C19.755221,10.7438046 19.5568896,10.9479693 19.3235551,11.4029715 C19.0902206,11.8579738 18.8393898,12.4471346 18.5710551,13.1704715 C18.3027204,13.8938085 18.0402231,14.6871339 17.7835551,15.5504715 C17.5268872,16.4138092 17.3227225,17.2188011 17.1710551,17.9654715 C17.0193877,18.7121419 16.920222,19.3479689 16.8735551,19.8729715 C16.8268882,20.3979742 16.885221,20.6838046 17.0485551,20.7304715 Z M28.963077,7.92 C29.1964115,7.38333065 29.5697411,7.02750088 30.083077,6.8525 C30.5964129,6.67749913 31.0980745,6.6366662 31.588077,6.73 C32.0780794,6.8233338 32.4747421,7.01583188 32.778077,7.3075 C33.0814118,7.59916813 33.1514111,7.9549979 32.988077,8.375 C32.2880735,9.93834115 31.6989127,11.4549927 31.220577,12.925 C30.7422413,14.3950074 30.3689117,15.701661 30.100577,16.845 C29.8322423,17.9883391 29.6747439,18.9158298 29.628077,19.6275 C29.5814101,20.3391702 29.6514094,20.7299997 29.838077,20.8 C30.0714115,20.8933338 30.316409,20.642503 30.573077,20.0475 C30.8297449,19.452497 31.1330752,18.5891723 31.483077,17.4575 C31.8330787,16.3258277 32.2530745,14.9725079 32.743077,13.3975 C33.2330794,11.8224921 33.8280735,10.0900095 34.528077,8.2 C34.7847449,7.4999965 35.2164073,7.04500105 35.823077,6.835 C36.4297467,6.62499895 37.0072409,6.57249948 37.555577,6.6775 C38.1039131,6.78250053 38.5297421,7.00416498 38.833077,7.3425 C39.1364118,7.68083503 39.1247453,8.02499825 38.798077,8.375 C38.4947421,8.7016683 38.2089117,9.33749528 37.940577,10.2825 C37.6722423,11.2275047 37.3747453,12.3183272 37.048077,13.555 C36.7214087,14.7916729 36.3422458,16.0866599 35.910577,17.44 C35.4789082,18.7933401 34.9539134,20.041661 34.335577,21.185 C33.7172406,22.3283391 32.9880812,23.2674963 32.148077,24.0025 C31.3080728,24.7375037 30.316416,25.105 29.173077,25.105 C28.0997383,25.105 27.2947463,24.8016697 26.758077,24.195 C26.2214076,23.5883303 25.8830777,22.7950049 25.743077,21.815 C25.6030763,20.8349951 25.6205761,19.7266729 25.795577,18.49 C25.9705779,17.2533272 26.227242,15.999173 26.565577,14.7275 C26.903912,13.455827 27.2889082,12.225006 27.720577,11.035 C28.1522458,9.84499405 28.5664083,8.8066711 28.963077,7.92 Z M46.7635551,17.8954715 C47.0202231,17.2421349 47.2360542,16.9329714 47.4110551,16.9679715 C47.586056,17.0029717 47.5802227,17.370468 47.3935551,18.0704715 C47.2068875,18.8404754 46.921057,19.6746337 46.5360551,20.5729715 C46.1510532,21.4713094 45.6727246,22.2763013 45.1010551,22.9879715 C44.5293856,23.6996418 43.8468924,24.2479696 43.0535551,24.6329715 C42.2602178,25.0179735 41.3618935,25.1054726 40.3585551,24.8954715 C39.4018837,24.6854705 38.6318914,24.2654747 38.0485551,23.6354715 C37.4652189,23.0054684 37.0393898,22.2413094 36.7710551,21.3429715 C36.5027204,20.4446337 36.3743884,19.4588102 36.3860551,18.3854715 C36.3977218,17.3121328 36.5318872,16.2271437 36.7885551,15.1304715 C37.0452231,14.0337994 37.4068861,12.9779766 37.8735551,11.9629715 C38.3402241,10.9479665 38.8943852,10.0438088 39.5360551,9.25047154 C40.177725,8.45713424 40.877718,7.82130726 41.6360551,7.34297154 C42.3943922,6.86463581 43.2052175,6.62547154 44.0685551,6.62547154 C44.7452252,6.62547154 45.3343859,6.78296996 45.8360551,7.09797154 C46.3377243,7.41297311 46.734387,7.83880219 47.0260551,8.37547154 C47.3177232,8.91214089 47.4927215,9.54796786 47.5510551,10.2829715 C47.6093887,11.0179752 47.5335562,11.8054673 47.3235551,12.6454715 C46.9735534,14.0454785 46.5010581,15.1538008 45.9060551,15.9704715 C45.3110521,16.7871423 44.6985583,17.3996362 44.0685551,17.8079715 C43.438552,18.2163069 42.8318914,18.4496379 42.2485551,18.5079715 C41.6652189,18.5663052 41.1868903,18.5371388 40.8135551,18.4204715 C40.8135551,19.0971416 40.8893877,19.6688025 41.0410551,20.1354715 C41.1927225,20.6021405 41.5252192,20.9404705 42.0385551,21.1504715 C42.4585572,21.3371391 42.8960528,21.3721388 43.3510551,21.2554715 C43.8060574,21.1388043 44.2493863,20.9229731 44.6810551,20.6079715 C45.1127239,20.29297 45.5093866,19.9021405 45.8710551,19.4354715 C46.2327236,18.9688025 46.5302206,18.4554743 46.7635551,17.8954715 Z M43.4035551,10.7904715 C43.240221,10.7671381 43.0418896,10.9304698 42.8085551,11.2804715 C42.5752206,11.6304733 42.3360563,12.091302 42.0910551,12.6629715 C41.8460539,13.2346411 41.6185562,13.8821346 41.4085551,14.6054715 C41.1985541,15.3288085 41.0468889,16.0521346 40.9535551,16.7754715 C41.5835583,16.4254698 42.0910532,15.9238081 42.4760551,15.2704715 C42.861057,14.6171349 43.1527208,13.9638081 43.3510551,13.3104715 C43.5493894,12.6571349 43.6485551,12.0796407 43.6485551,11.5779715 C43.6485551,11.0763024 43.5668893,10.813805 43.4035551,10.7904715 Z M59.868077,18 C60.0314111,17.32333 60.2180759,17.0083331 60.428077,17.055 C60.638078,17.1016669 60.6614111,17.4749965 60.498077,18.175 C60.4280766,18.5250018 60.2997446,19.0791629 60.113077,19.8375 C59.9264094,20.5958371 59.663912,21.3541629 59.325577,22.1125 C58.987242,22.8708371 58.5555796,23.5416638 58.030577,24.125 C57.5055744,24.7083363 56.8580808,25 56.088077,25 C55.5280742,25 55.0030794,24.8658347 54.513077,24.5975 C54.0230745,24.3291653 53.6497449,23.8916697 53.393077,23.285 C53.2064094,22.9116648 53.1072437,22.4508361 53.095577,21.9025 C53.0839103,21.3541639 53.1189099,20.7416701 53.200577,20.065 C53.2822441,19.38833 53.4164094,18.6650039 53.603077,17.895 C53.7897446,17.1249962 53.9997425,16.3316708 54.233077,15.515 C54.3964111,14.9316638 54.5539096,14.3600028 54.705577,13.8 C54.8572444,13.2399972 54.9797432,12.7441688 55.073077,12.3125 C55.1664108,11.8808312 55.213077,11.536668 55.213077,11.28 C55.213077,11.0233321 55.1430777,10.895 55.003077,10.895 C54.7697425,10.895 54.5014118,11.1866638 54.198077,11.77 C53.8947421,12.3533363 53.6030784,13.0533293 53.323077,13.87 C53.0897425,14.7333377 52.8272451,15.6199955 52.535577,16.53 C52.2439089,17.4400046 51.993078,18.3149958 51.783077,19.155 C51.5730759,19.9950042 51.4447439,20.7824963 51.398077,21.5175 C51.3514101,22.2525037 51.456409,22.8766641 51.713077,23.39 C51.9464115,23.8800025 51.9172451,24.2649986 51.625577,24.545 C51.3339089,24.8250014 50.9372462,24.9766666 50.435577,25 C49.9339078,25.0233335 49.4147463,24.8950014 48.878077,24.615 C48.3414076,24.3349986 47.9330784,23.8916697 47.653077,23.285 C47.3497421,22.60833 47.2214101,21.8266711 47.268077,20.94 C47.3147439,20.0533289 47.4605758,19.1258382 47.705577,18.1575 C47.9505782,17.1891618 48.2480752,16.2033384 48.598077,15.2 C48.9480787,14.1966617 49.2689089,13.2341713 49.560577,12.3125 C49.8522451,11.3908287 50.0680763,10.5450039 50.208077,9.775 C50.3480777,9.00499615 50.3247446,8.3633359 50.138077,7.85 C49.9980763,7.45333135 50.0739089,7.15583433 50.365577,6.9575 C50.6572451,6.75916568 51.0305747,6.71249948 51.485577,6.8175 C51.9405793,6.92250053 52.401408,7.208331 52.868077,7.675 C53.334746,8.141669 53.6614094,8.841662 53.848077,9.775 C54.2914125,8.8883289 54.8280738,8.15333625 55.458077,7.57 C56.0880801,6.98666375 56.76474,6.695 57.488077,6.695 C58.6080826,6.695 59.3314087,7.20249493 59.658077,8.2175 C59.9847453,9.23250508 59.8680798,10.7899895 59.308077,12.89 C59.1914097,13.3333356 59.0397446,13.8874967 58.853077,14.5525 C58.6664094,15.2175033 58.4855779,15.8941632 58.310577,16.5825 C58.1355761,17.2708368 57.9722444,17.9183303 57.820577,18.525 C57.6689096,19.1316697 57.5580773,19.5983317 57.488077,19.925 C57.3714097,20.4850028 57.3655765,20.8933321 57.470577,21.15 C57.5755775,21.406668 57.7214094,21.535 57.908077,21.535 C58.118078,21.535 58.3164094,21.4183345 58.503077,21.185 C58.6897446,20.9516655 58.8705761,20.6541685 59.045577,20.2925 C59.2205779,19.9308315 59.3780763,19.5458354 59.518077,19.1375 C59.6580777,18.7291646 59.7747432,18.3500018 59.868077,18 Z M65.0625989,4.87452846 C65.1559327,4.57119361 65.2434318,4.27952986 65.3250989,3.99952846 C65.406766,3.71952706 65.4825985,3.43952986 65.5525989,3.15952846 C65.6692661,2.73952636 65.8325978,2.37203004 66.0425989,2.05702846 C66.2525999,1.74202689 66.4975975,1.56702864 66.7775989,1.53202846 C67.0576003,1.49702829 67.3550973,1.66035999 67.6700989,2.02202846 C67.9851005,2.38369694 68.3059306,3.04285701 68.6325989,3.99952846 L68.7375989,4.45452846 C69.6709369,4.26786086 70.394263,4.09869589 70.9075989,3.94702846 C71.4209348,3.79536104 71.8059309,3.81286086 72.0625989,3.99952846 C72.2725999,4.16286261 72.3542658,4.39619361 72.3075989,4.69952846 C72.260932,5.00286331 72.1209334,5.30619361 71.8875989,5.60952846 C71.6542644,5.91286331 71.3451008,6.18119396 70.9600989,6.41452846 C70.575097,6.64786296 70.1492679,6.76452846 69.6825989,6.76452846 L68.5275989,6.76452846 C68.3642647,7.53453231 68.1309337,8.39785701 67.8275989,9.35452846 C67.524264,10.3111999 67.1917674,11.3495229 66.8300989,12.4695285 C66.4684304,13.5895341 66.1067674,14.7795222 65.7450989,16.0395285 C65.3834304,17.2995348 65.0626003,18.6295215 64.7825989,20.0295285 C64.6659316,20.5895313 64.6659316,20.9978605 64.7825989,21.2545285 C64.8992661,21.5111964 65.0509313,21.6395285 65.2375989,21.6395285 C65.4242665,21.6395285 65.6167646,21.522863 65.8150989,21.2895285 C66.0134332,21.056194 66.1942647,20.7586969 66.3575989,20.3970285 C66.520933,20.03536 66.6725982,19.6503638 66.8125989,19.2420285 C66.9525996,18.8336931 67.0692651,18.4545302 67.1625989,18.1045285 C67.3492665,17.4278584 67.5417646,17.1128616 67.7400989,17.1595285 C67.9384332,17.2061954 67.955933,17.579525 67.7925989,18.2795285 C67.7225985,18.6295302 67.5942665,19.1836913 67.4075989,19.9420285 C67.2209313,20.7003656 66.9642672,21.4586913 66.6375989,22.2170285 C66.3109306,22.9753656 65.8851015,23.6461922 65.3600989,24.2295285 C64.8350963,24.8128647 64.1876027,25.1045285 63.4175989,25.1045285 C62.8575961,25.1045285 62.3209348,24.9703631 61.8075989,24.7020285 C61.294263,24.4336938 60.9209334,23.9961982 60.6875989,23.3895285 C60.3609306,22.5728577 60.285098,21.5228682 60.4600989,20.2395285 C60.6350998,18.9561887 60.9325968,17.562036 61.3525989,16.0570285 C61.772601,14.5520209 62.2742626,12.98287 62.8575989,11.3495285 C63.4409351,9.71618696 63.989263,8.14120271 64.5025989,6.62452846 C64.3159313,6.60119501 64.140933,6.58952846 63.9775989,6.58952846 L63.5225989,6.58952846 C63.0559299,6.58952846 62.7759327,6.50202934 62.6825989,6.32702846 C62.5892651,6.15202759 62.6184315,5.95369624 62.7700989,5.73202846 C62.9217663,5.51036069 63.1667639,5.31202934 63.5050989,5.13702846 C63.8434339,4.96202759 64.2225968,4.87452846 64.6425989,4.87452846 L65.0625989,4.87452846 Z M76.2421208,25.2090569 C75.682118,25.2090569 75.1454567,25.0748916 74.6321208,24.8065569 C74.1187849,24.5382223 73.7571218,24.1007266 73.5471208,23.4940569 C73.5004539,23.4240566 73.4712875,23.3423907 73.4596208,23.2490569 C73.4479541,23.1557231 73.4304542,23.0623907 73.4071208,22.9690569 C73.1504528,23.5757266 72.7887898,24.1007214 72.3221208,24.5440569 C71.8554518,24.9873925 71.2837908,25.2090569 70.6071208,25.2090569 C70.047118,25.2090569 69.5221232,25.0748916 69.0321208,24.8065569 C68.5421183,24.5382223 68.1687887,24.1007266 67.9121208,23.4940569 C67.6554528,22.9107207 67.5562872,22.1932279 67.6146208,21.3415569 C67.6729544,20.489886 67.812953,19.5740618 68.0346208,18.5940569 C68.2562886,17.614052 68.5304525,16.5990622 68.8571208,15.5490569 C69.1837891,14.4990517 69.4987859,13.4957284 69.8021208,12.5390569 C70.1054556,11.5823855 70.3562865,10.7073942 70.5546208,9.91405693 C70.7529551,9.12071963 70.8287877,8.46739283 70.7821208,7.95405693 C70.7354539,7.53405483 70.9162854,7.23072453 71.3246208,7.04405693 C71.7329562,6.85738933 72.1821183,6.80488985 72.6721208,6.88655693 C73.1621232,6.968224 73.6171187,7.201555 74.0371208,7.58655693 C74.4571229,7.97155885 74.6671208,8.52571998 74.6671208,9.24905693 C74.6671208,9.90239353 74.5737884,10.59072 74.3871208,11.3140569 C74.2004532,12.0373939 73.9729555,12.8365526 73.7046208,13.7115569 C73.4362861,14.5865613 73.1446224,15.5490517 72.8296208,16.5990569 C72.5146192,17.6490622 72.2404553,18.8273837 72.0071208,20.1340569 C71.8671201,20.6940597 71.8554535,21.102389 71.9721208,21.3590569 C72.088788,21.6157249 72.2404532,21.7440569 72.4271208,21.7440569 C72.6137884,21.7440569 72.7712868,21.639058 72.8996208,21.4290569 C73.0279548,21.2190559 73.1329537,20.9507252 73.2146208,20.6240569 C73.2962879,20.2973886 73.3721204,19.9415589 73.4421208,19.5565569 C73.5121211,19.171555 73.593787,18.8040587 73.6871208,18.4540569 C73.8504549,17.5673858 74.0546196,16.6573949 74.2996208,15.7240569 C74.544622,14.7907189 74.8012861,13.8982279 75.0696208,13.0465569 C75.3379555,12.194886 75.6121194,11.4190604 75.8921208,10.7190569 C76.1721222,10.0190534 76.4171197,9.44739248 76.6271208,9.00405693 C76.9771225,8.30405343 77.4496178,7.79072523 78.0446208,7.46405693 C78.6396238,7.13738863 79.1996182,6.97405693 79.7246208,6.97405693 C80.2496234,6.97405693 80.6579527,7.1198888 80.9496208,7.41155693 C81.2412889,7.70322505 81.2587887,8.11738758 81.0021208,8.65405693 C80.6754525,9.35406043 80.3371225,10.2057186 79.9871208,11.2090569 C79.637119,12.2123953 79.2987891,13.244885 78.9721208,14.3065569 C78.6454525,15.3682289 78.3537887,16.4123851 78.0971208,17.4390569 C77.8404528,18.4657287 77.653788,19.3640531 77.5371208,20.1340569 C77.4204535,20.6940597 77.4321201,21.102389 77.5721208,21.3590569 C77.7121215,21.6157249 77.8754532,21.7440569 78.0621208,21.7440569 C78.2721218,21.7440569 78.4704532,21.6273914 78.6571208,21.3940569 C78.8437884,21.1607224 79.0246199,20.8632254 79.1996208,20.5015569 C79.3746217,20.1398885 79.5321201,19.7548923 79.6721208,19.3465569 C79.8121215,18.9382216 79.928787,18.5590587 80.0221208,18.2090569 C80.1854549,17.5323869 80.3721197,17.21739 80.5821208,17.2640569 C80.7921218,17.3107238 80.8154549,17.6840534 80.6521208,18.3840569 C80.5821204,18.7340587 80.4537884,19.2882198 80.2671208,20.0465569 C80.0804532,20.8048941 79.8179558,21.5632198 79.4796208,22.3215569 C79.1412858,23.0798941 78.7096234,23.7507207 78.1846208,24.3340569 C77.6596182,24.9173932 77.0121246,25.2090569 76.2421208,25.2090569 Z M93.4416427,11.9435854 C93.6283103,11.2435819 93.8208084,10.9169185 94.0191427,10.9635854 C94.217477,11.0102523 94.2349768,11.3835819 94.0716427,12.0835854 C94.0249758,12.3169199 93.9433099,12.6610831 93.8266427,13.1160854 C93.7099754,13.5710877 93.5583103,14.066916 93.3716427,14.6035854 C93.1849751,15.1402547 92.9633106,15.6827493 92.7066427,16.2310854 C92.4499747,16.7794215 92.158311,17.2635833 91.8316427,17.6835854 C91.5049744,18.1035875 91.1316448,18.4360842 90.7116427,18.6810854 C90.2916406,18.9260866 89.8366451,19.0135857 89.3466427,18.9435854 C88.6933061,18.8502516 88.2441439,18.5935875 87.9991427,18.1735854 C87.7541415,17.7535833 87.6258094,17.2577549 87.6141427,16.6860854 C87.602476,16.1144159 87.6608087,15.5077553 87.7891427,14.8660854 C87.9174767,14.2244155 88.051642,13.6294215 88.1916427,13.0810854 C88.3316434,12.5327493 88.4191425,12.0835871 88.4541427,11.7335854 C88.4891429,11.3835836 88.4133103,11.2085854 88.2266427,11.2085854 C88.0399751,11.2085854 87.8008108,11.4652495 87.5091427,11.9785854 C87.2174746,12.4919213 86.9433106,13.121915 86.6866427,13.8685854 C86.4533082,14.731923 86.1849775,15.6302474 85.8816427,16.5635854 C85.5783078,17.4969234 85.3158105,18.4069143 85.0941427,19.2935854 C84.8724749,20.1802565 84.7324763,21.0085815 84.6741427,21.7785854 C84.6158091,22.5485892 84.7149747,23.1902495 84.9716427,23.7035854 C85.2049772,24.1935878 85.1758108,24.578584 84.8841427,24.8585854 C84.5924746,25.1385868 84.1958119,25.2902519 83.6941427,25.3135854 C83.1924735,25.3369188 82.6674788,25.2085868 82.1191427,24.9285854 C81.5708066,24.648584 81.1566441,24.2052551 80.8766427,23.5985854 C80.5733078,22.9219153 80.4449758,22.1402565 80.4916427,21.2535854 C80.5383096,20.3669143 80.6899747,19.4394236 80.9466427,18.4710854 C81.2033106,17.5027472 81.5066409,16.5169237 81.8566427,15.5135854 C82.2066444,14.510247 82.5274746,13.5477567 82.8191427,12.6260854 C83.1108108,11.7044141 83.326642,10.8585892 83.4666427,10.0885854 C83.6066434,9.31858154 83.5833103,8.67692129 83.3966427,8.16358539 C83.256642,7.76691674 83.3324746,7.46941971 83.6241427,7.27108539 C83.9158108,7.07275106 84.2891404,7.02608486 84.7441427,7.13108539 C85.199145,7.23608591 85.6599737,7.52191639 86.1266427,7.98858539 C86.5933117,8.45525439 86.9199751,9.15524739 87.1066427,10.0885854 C87.5499782,9.20191429 88.0866395,8.46692164 88.7166427,7.88358539 C89.3466458,7.30024914 90.0233057,7.00858539 90.7466427,7.00858539 C91.4233127,7.00858539 91.8899747,7.21858329 92.1466427,7.63858539 C92.4033106,8.05858749 92.5316427,8.57774896 92.5316427,9.19608539 C92.5316427,9.81442181 92.4499768,10.4910817 92.2866427,11.2260854 C92.1233085,11.9610891 91.9541436,12.637749 91.7791427,13.2560854 C91.6041418,13.8744218 91.4699765,14.3935833 91.3766427,14.8135854 C91.2833089,15.2335875 91.3183085,15.4435854 91.4816427,15.4435854 C91.6916437,15.4435854 91.8899751,15.3269199 92.0766427,15.0935854 C92.2633103,14.8602509 92.4441418,14.5685871 92.6191427,14.2185854 C92.7941436,13.8685836 92.951642,13.4894208 93.0916427,13.0810854 C93.2316434,12.67275 93.3483089,12.2935871 93.4416427,11.9435854 Z M103.865686,18.5226423 C104.122354,17.8693057 104.338186,17.5601421 104.513186,17.5951423 C104.688187,17.6301425 104.682354,17.9976388 104.495686,18.6976423 C104.309019,19.4676462 104.023188,20.3018045 103.638186,21.2001423 C103.253185,22.0984801 102.774856,22.9034721 102.203186,23.6151423 C101.631517,24.3268125 100.949024,24.8751404 100.155686,25.2601423 C99.3623492,25.6451442 98.4640248,25.7326434 97.4606865,25.5226423 C96.504015,25.3126413 95.7340227,24.8926455 95.1506865,24.2626423 C94.5673502,23.6326392 94.1415212,22.8684801 93.8731865,21.9701423 C93.6048518,21.0718045 93.4765198,20.085981 93.4881865,19.0126423 C93.4998532,17.9393036 93.6340185,16.8543145 93.8906865,15.7576423 C94.1473544,14.6609702 94.5090175,13.6051474 94.9756865,12.5901423 C95.4423555,11.5751372 95.9965166,10.6709796 96.6381865,9.87764232 C97.2798564,9.08430502 97.9798494,8.44847804 98.7381865,7.97014232 C99.4965236,7.49180659 100.307349,7.25264232 101.170686,7.25264232 C101.847357,7.25264232 102.436517,7.41014074 102.938186,7.72514232 C103.439856,8.04014389 103.836518,8.46597297 104.128186,9.00264232 C104.419855,9.53931167 104.594853,10.1751386 104.653186,10.9101423 C104.71152,11.645146 104.635688,12.4326381 104.425686,13.2726423 C104.075685,14.6726493 103.603189,15.7809716 103.008186,16.5976423 C102.413184,17.4143131 101.80069,18.0268069 101.170686,18.4351423 C100.540683,18.8434777 99.9340227,19.0768087 99.3506865,19.1351423 C98.7673502,19.1934759 98.2890217,19.1643096 97.9156865,19.0476423 C97.9156865,19.7243124 97.9915191,20.2959733 98.1431865,20.7626423 C98.2948539,21.2293113 98.6273506,21.5676413 99.1406865,21.7776423 C99.5606886,21.9643099 99.9981842,21.9993096 100.453186,21.8826423 C100.908189,21.7659751 101.351518,21.5501439 101.783186,21.2351423 C102.214855,20.9201407 102.611518,20.5293113 102.973186,20.0626423 C103.334855,19.5959733 103.632352,19.0826451 103.865686,18.5226423 Z M100.505686,11.4176423 C100.342352,11.3943089 100.144021,11.5576406 99.9106865,11.9076423 C99.677352,12.2576441 99.4381877,12.7184728 99.1931865,13.2901423 C98.9481853,13.8618118 98.7206875,14.5093054 98.5106865,15.2326423 C98.3006854,15.9559793 98.1490203,16.6793054 98.0556865,17.4026423 C98.6856896,17.0526406 99.1931846,16.5509789 99.5781865,15.8976423 C99.9631884,15.2443057 100.254852,14.5909789 100.453186,13.9376423 C100.651521,13.2843057 100.750686,12.7068115 100.750686,12.2051423 C100.750686,11.7034731 100.669021,11.4409758 100.505686,11.4176423 Z M110.985208,7.35717078 C111.661878,7.24050353 112.268539,7.28716973 112.805208,7.49717078 C113.341878,7.70717183 113.796873,8.02216868 114.170208,8.44217078 C114.543544,8.86217288 114.823541,9.3696678 115.010208,9.96467078 C115.196876,10.5596738 115.266875,11.1838342 115.220208,11.8371708 C115.173541,12.677175 115.021876,13.3480016 114.765208,13.8496708 C114.50854,14.35134 114.211043,14.7188363 113.872708,14.9521708 C113.534373,15.1855053 113.178544,15.3080041 112.805208,15.3196708 C112.431873,15.3313375 112.10521,15.278838 111.825208,15.1621708 C111.545207,15.0455035 111.346876,14.8821718 111.230208,14.6721708 C111.113541,14.4621697 111.125208,14.2521718 111.265208,14.0421708 C111.428543,13.7621694 111.551041,13.4763389 111.632708,13.1846708 C111.714375,12.8930027 111.755208,12.624672 111.755208,12.3796708 C111.755208,12.1346696 111.714375,11.9246717 111.632708,11.7496708 C111.551041,11.5746699 111.451876,11.4638377 111.335208,11.4171708 C111.101874,11.3471704 110.897709,11.4055032 110.722708,11.5921708 C110.547707,11.7788384 110.425209,12.0355025 110.355208,12.3621708 C110.285208,12.6888391 110.291041,13.0563354 110.372708,13.4646708 C110.454375,13.8730062 110.635207,14.2755021 110.915208,14.6721708 C111.755213,15.8155098 112.332707,16.9179988 112.647708,17.9796708 C112.96271,19.0413428 113.091042,20.021333 113.032708,20.9196708 C112.974375,21.8180086 112.758544,22.6171673 112.385208,23.3171708 C112.011873,24.0171743 111.539378,24.5713354 110.967708,24.9796708 C110.396039,25.3880062 109.754379,25.638837 109.042708,25.7321708 C108.331038,25.8255046 107.625212,25.7205056 106.925208,25.4171708 C106.318539,25.1605028 105.816877,24.7580069 105.420208,24.2096708 C105.02354,23.6613347 104.743543,23.0488408 104.580208,22.3721708 C104.416874,21.6955007 104.370208,20.9838412 104.440208,20.2371708 C104.510209,19.4905004 104.70854,18.7788408 105.035208,18.1021708 C105.338543,17.5188345 105.723539,17.1163386 106.190208,16.8946708 C106.656877,16.673003 107.100206,16.5738373 107.520208,16.5971708 C107.94021,16.6205042 108.272707,16.7313365 108.517708,16.9296708 C108.76271,17.1280051 108.815209,17.3438363 108.675208,17.5771708 C108.41854,17.9971729 108.237709,18.4405018 108.132708,18.9071708 C108.027708,19.3738398 107.981042,19.8055021 107.992708,20.2021708 C108.004375,20.5988394 108.062708,20.9313361 108.167708,21.1996708 C108.272709,21.4680055 108.395208,21.6138373 108.535208,21.6371708 C108.651876,21.6605042 108.832707,21.5846717 109.077708,21.4096708 C109.32271,21.2346699 109.509374,20.9371729 109.637708,20.5171708 C109.766042,20.0971687 109.766042,19.5605074 109.637708,18.9071708 C109.509374,18.2538342 109.130212,17.4488422 108.500208,16.4921708 C107.846872,15.5354993 107.432709,14.5496759 107.257708,13.5346708 C107.082707,12.5196657 107.117707,11.5746752 107.362708,10.6996708 C107.60771,9.8246664 108.039372,9.08384048 108.657708,8.47717078 C109.276045,7.87050108 110.05187,7.49717148 110.985208,7.35717078 Z"></path>
                </g>
            </g>
        </g>
    </g>
</svg>